
#
# nginx - /etc/nginx/conf.d/crawler_cidrs.txt
# see /etc/nginx/conf.d/crawler_whitelist.conf
#
# v 2017-01-10
#

#
# local networks should be allowed anyway
#

127.0.0.0/8 1; 
10.0.0.0/8 1;
172.16.0.0/12 1;
192.168.0.0/16 1;

#
# nagios + cic
#

148.251.153.114 1;
148.251.134.145 1;

#
# uptimerobot
#

69.162.124.224/28 1;


# site24x7

121.244.91.46 1;
173.193.201.67 1;
162.253.54.200 1;
45.63.10.251 1;
184.95.56.8 1;
139.162.59.38 1;
180.149.241.212 1;
45.32.144.240 1;
45.55.24.175 1;
45.79.199.86 1;
86.96.195.202 1;
162.243.75.49 1;
50.2.217.141 1;
5.77.40.196 1;
46.235.8.142 1;
169.57.14.125 1;
45.32.254.120 1;
120.27.24.218 1;
154.66.197.14 1;
173.234.81.166 1;
45.33.110.8 1;
46.108.39.205 1;
45.79.213.84 1;
45.33.33.28 1;
192.241.175.194 1;
82.103.140.78 1;
54.197.228.117 1;
104.207.142.102 1;
159.203.1.147 1;
66.187.76.125 1;
45.63.84.131 1;
207.244.103.237 1;
46.108.39.228 1;
191.96.102.6 1;
169.57.14.116 1;
162.213.36.11 1;
199.19.214.79 1;
174.129.225.90 1;
177.71.177.249 1;
199.201.88.82 1;
23.109.35.243 1;
173.255.252.4 1;
186.226.60.108 1;
111.67.17.197 1;
176.58.98.218 1;
72.5.230.65 1;
162.243.55.64 1;
87.238.165.164 1;
182.160.154.27 1;
75.101.151.107 1;
79.125.119.192 1;
37.235.50.96 1;
45.63.106.106 1;
103.200.6.77 1;
176.9.204.27 1;
104.238.181.78 1;
104.236.16.22 1;
45.79.71.211 1;
134.19.176.30 1;
45.79.102.189 1;
184.73.189.166 1;
208.69.56.237 1;
74.207.251.164 1;
79.99.1.106 1;
119.81.237.98 1;
91.228.126.149 1;
45.32.229.88 1;
213.219.39.144 1;
95.141.37.20 1;
162.213.36.181 1;
173.234.72.184 1;
138.68.2.176 1;
50.116.38.61 1;
139.59.0.168 1;
108.61.203.16 1;
45.32.225.170 1;
120.138.30.84 1;
165.254.167.109 1;
82.113.131.197 1;
139.162.14.50 1;
104.236.53.140 1;
139.196.199.219 1;
104.238.186.171 1;
173.234.81.165 1;
173.234.85.91 1;
45.114.116.186 1;
104.207.130.121 1;
192.73.242.23 1;
104.156.247.194 1;
37.235.56.210 1;
119.254.34.70 1;
108.61.217.92 1;
185.3.95.86 1;
104.140.20.235 1;
173.213.96.152 1;
54.232.116.163 1;
223.27.24.156 1;
131.255.5.230 1;
207.244.104.49 1;
45.33.117.219 1;
77.66.47.161 1;
80.87.196.114 1;
5.77.35.99 1;
178.209.40.103 1;
165.254.168.111 1;
173.234.72.183 1;
45.63.87.133 1;
52.78.86.95 1;
37.235.48.47 1;
208.67.1.76 1;
216.230.231.142 1;
217.78.0.115 1;
104.236.114.81 1;
182.92.238.235 1;
82.196.8.112 1;
179.43.191.26 1;
54.248.99.81 1;
5.189.131.209 1;
139.196.202.229 1;
182.54.235.47 1;
198.211.100.169 1;
175.45.137.201 1;
114.55.61.99 1;
175.41.141.147 1;
23.83.77.221 1;
104.236.141.173 1;
176.28.13.209 1;
173.234.85.92 1;
31.193.180.147 1;
45.79.98.201 1;
67.203.15.28 1;
74.201.155.108 1;
45.79.67.12 1;
217.78.6.89 1;
198.74.62.39 1;
75.5.230.111 1;
45.33.0.252 1;
213.136.85.13 1;
192.34.60.107 1;
54.253.123.89 1;
77.81.104.105 1;
120.138.27.125 1;
207.244.104.233 1;
138.68.2.184 1;
216.230.230.54 1;


#
# maxcdn
#

108.161.176.0/20 1 ;
94.46.144.0/20 1 ;
146.88.128.0/20 1 ;
198.232.124.0/22 1 ;
23.111.8.0/22 1 ;
217.22.28.0/22 1 ;
64.125.76.64/27 1 ;
64.125.76.96/27 1 ;
64.125.78.96/27 1 ;
64.125.78.192/27 1 ;
64.125.78.224/27 1 ;
64.125.102.32/27 1 ;
64.125.102.64/27 1 ;
64.125.102.96/27 1 ;
94.31.27.64/27 1 ;
94.31.33.128/27 1 ;
94.31.33.160/27 1 ;
94.31.33.192/27 1 ;
94.31.56.160/27 1 ;
177.54.148.0/24 1 ;
185.18.207.64/26 1 ;
50.31.249.224/27 1 ;
50.31.251.32/28 1 ;
119.81.42.192/27 1 ;
119.81.104.96/28 1 ;
119.81.67.8/29 1 ;
119.81.0.104/30 1 ;
119.81.1.144/30 1 ;
27.50.77.226/32 1 ;
27.50.79.130/32 1 ;
119.81.131.130/32 1 ;
119.81.131.131/32 1 ;
216.12.211.59/32 1 ;
216.12.211.60/32 1 ;
37.58.110.67/32 1 ;
37.58.110.68/32 1 ;
158.85.206.228/32 1 ;
158.85.206.231/32 1 ;
174.36.204.195/32 1 ;
174.36.204.196/32 1 ;
151.139.0.0/19 1 ;
94.46.144.0/21 1 ;
103.66.28.0/22 1 ;
103.228.104.0/22 1;

#
#
#

# 
# https://ip-ranges.amazonaws.com/ip-ranges.json
# http://docs.aws.amazon.com/AmazonCloudFront/latest/DeveloperGuide/LocationsOfEdgeServers.html
# 

13.32.0.0/15 1; #GLOBAL
13.54.63.128/26 1; #ap-southeast-2
34.195.252.0/24 1; #us-east-1
35.162.63.192/26 1; #us-west-2
52.15.127.128/26 1; #us-east-2
52.46.0.0/18 1; #GLOBAL
52.52.191.128/26 1; #us-west-1
52.56.127.0/25 1; #eu-west-2
52.57.254.0/24 1; #eu-central-1
52.66.194.128/26 1; #ap-south-1
52.78.247.128/26 1; #ap-northeast-2
52.84.0.0/15 1; #GLOBAL
52.199.127.192/26 1; #ap-northeast-1
52.212.248.0/26 1; #eu-west-1
52.220.191.0/26 1; #ap-southeast-1
52.222.128.0/17 1; #GLOBAL
54.182.0.0/16 1; #GLOBAL
54.192.0.0/16 1; #GLOBAL
54.230.0.0/16 1; #GLOBAL
54.233.255.128/26 1; #sa-east-1
54.239.128.0/18 1; #GLOBAL
54.239.192.0/19 1; #GLOBAL
54.240.128.0/18 1; #GLOBAL
204.246.164.0/22 1; #GLOBAL
204.246.168.0/22 1; #GLOBAL
204.246.174.0/23 1; #GLOBAL
204.246.176.0/20 1; #GLOBAL
205.251.192.0/19 1; #GLOBAL
205.251.249.0/24 1; #GLOBAL
205.251.250.0/23 1; #GLOBAL
205.251.252.0/23 1; #GLOBAL
205.251.254.0/24 1; #GLOBAL
216.137.32.0/19 1; #GLOBAL



#
# pindogm probes
# https://help.pingdom.com/hc/en-us/articles/203682601-Pingdom-probes-public-IP-addresses
# https://my.pingdom.com/probes/ipv4


5.172.196.188 1;
5.178.78.77 1;
23.22.2.46 1;
23.111.152.74 1;
27.122.14.7 1;
37.252.231.50 1;
43.225.198.122 1;
43.229.84.12 1;
46.20.45.18 1;
46.165.195.139 1;
50.16.153.186 1;
50.22.90.227 1;
50.23.94.74 1;
52.0.204.16 1;
52.24.42.103 1;
52.48.244.35 1;
52.52.34.158 1;
52.52.95.213 1;
52.52.118.192 1;
52.57.132.90 1;
52.59.46.112 1;
52.59.147.246 1;
52.62.12.49 1;
52.63.142.2 1;
52.63.164.147 1;
52.63.167.55 1;
52.73.209.122 1;
52.89.43.70 1;
52.197.31.124 1;
52.197.224.235 1;
52.198.25.184 1;
52.201.3.199 1;
52.209.34.226 1;
52.209.186.226 1;
52.210.232.124 1;
54.68.48.199 1;
54.70.202.58 1;
64.120.6.122 1;
64.237.49.203 1;
64.237.55.3 1;
67.228.213.178 1;
69.59.28.19 1;
70.32.40.2 1;
72.46.130.42 1;
72.46.140.106 1;
72.46.140.186 1;
72.46.153.26 1;
76.72.167.90 1;
76.72.167.154 1;
76.72.171.180 1;
76.72.172.208 1;
76.164.194.74 1;
78.31.69.179 1;
82.103.136.16 1;
82.103.139.165 1;
83.170.113.210 1;
85.17.156.11 1;
85.17.156.76 1;
85.17.156.99 1;
85.93.93.123 1;
85.93.93.124 1;
85.93.93.133 1;
89.163.146.247 1;
89.163.242.206 1;
94.247.174.83 1;
95.141.32.46 1;
95.211.198.87 1;
95.211.217.68 1;
95.211.228.65 1;
96.31.66.245 1;
103.47.211.210 1;
108.62.115.226 1;
109.123.101.103 1;
158.58.173.160 1;
159.8.146.132 1;
162.218.67.34 1;
168.1.92.58 1;
173.248.147.18 1;
173.254.206.242 1;
174.34.156.130 1;
174.34.162.242 1;
174.34.224.167 1;
175.45.132.20 1;
178.255.152.2 1;
178.255.153.2 1;
178.255.154.2 1;
178.255.155.2 1;
184.75.208.210 1;
184.75.209.18 1;
184.75.210.90 1;
184.75.210.226 1;
184.75.214.66 1;
185.39.146.214 1;
185.39.146.215 1;
185.70.76.23 1;
188.138.40.20 1;
199.87.228.66 1;
204.152.200.42 1;
207.244.80.239 1;
208.43.68.59 1;
208.64.28.194 1;
209.126.117.87 1;
209.126.120.29 1;
211.44.63.35 1;



# payment-providers

185.60.20.0/24 1; # payone 

#####################################################################

# barzahlen.de 

46.231.176.208/28 1; 

#####################################################################

# hipay

195.158.241.241 1;
195.158.240.99 1;


# paypal
# https://www.paypal-knowledge.com/infocenter/index?page=content&widgetview=true&id=FAQ1056&viewlocale=en_US&direct=en

# api.paypal.com
64.4.248.23 1;
64.4.249.23 1;
66.211.168.91 1;
66.211.168.123 1;
173.0.84.66 1;
173.0.84.98 1;
173.0.88.66 1;
173.0.88.98 1;
173.0.92.23 1;
173.0.93.23 1;

# api-3t.paypal.com
64.4.248.21 1;
64.4.249.21 1;
66.211.168.126 1;
173.0.84.101 1;
173.0.84.69 1;
173.0.88.101 1;
173.0.88.69 1;
173.0.92.21 1;
173.0.93.21 1;

# api-aa.paypal.com
66.211.168.124 1;
173.0.84.67 1;
173.0.84.99 1;
173.0.88.67 1;
173.0.88.99 1;

# api-aa-3t.paypal.com
173.0.88.68 1;
173.0.88.100 1;
173.0.84.68 1;
173.0.84.100 1;
66.211.168.125 1;
173.0.92.20 1;
173.0.93.20 1;
64.4.249.20 1;
64.4.248.20 1;

# api-s.paypal.com
2.18.132.123/32 1;
2.19.52.123/32 1;
2.19.68.123/32 1;
2.21.144.110/32 1;
2.21.196.123/32 1;
2.22.100.123/32 1;
2.23.68.123/32 1;
202.43.52.123/32 1;
23.0.20.123/32 1;
23.1.52.123/32 1;
23.13.148.123/32 1;
23.15.100.123/32 1;
23.15.212.123/32 1;
23.3.180.123/32 1;
23.35.26.84/32 1;
23.45.212.123/32 1;
23.5.75.3/32 1;
23.56.157.2/32 1;
23.57.196.123/32 1;
23.57.244.123/32 1;
23.57.84.123/32 1;
23.58.100.123/32 1;
23.58.180.123/32 1;
23.58.20.123/32 1;
23.59.4.123/32 1;
23.60.116.123/32 1;
23.61.164.123/32 1;
23.61.52.123/32 1;
23.63.116.123/32 1;
23.63.4.123/32 1;
23.64.148.123/32 1;
23.64.244.123/32 1;
23.64.68.123/32 1;
59.151.128.123/32 1;
59.151.172.123/32 1;
59.151.176.123/32 1;
64.4.248.0/24 1;
64.4.249.0/24 1;
69.192.116.123/32 1;
69.192.20.123/32 1;
69.192.36.123/32 1;
69.192.84.123/32 1;
72.246.200.123/32 1;
72.247.12.123/32 1;
72.247.204.123/32 1;
72.247.68.123/32 1;
80.67.92.123/32 1;
84.53.159.101/32 1;
84.53.188.123/32 1;
88.221.100.123/32 1;
88.221.104.123/32 1;
88.221.140.123/32 1;
88.221.156.123/32 1;
88.221.188.123/32 1;
88.221.204.123/32 1;
88.221.244.123/32 1;
88.221.60.123/32 1;
88.221.68.123/32 1;
88.221.72.123/32 1;
88.221.76.123/32 1;
88.221.96.123/32 1;
92.122.132.123/32 1;
92.122.4.123/32 1;
95.100.116.123/32 1;
95.100.196.123/32 1;
95.100.20.123/32 1;
95.100.228.123/32 1;
95.100.4.123/32 1;
95.101.212.123/32 1;
96.17.20.123/32 1;
96.17.212.123/32 1;
96.17.228.123/32 1;
96.17.244.123/32 1;
96.17.36.123/32 1;
96.17.84.123/32 1;
96.6.228.123/32 1;
118.214.100.123/32 1;
118.214.132.123/32 1;
118.214.244.123/32 1;
118.214.36.123/32 1;
118.214.68.123/32 1;
122.252.132.123/32 1;
122.252.140.123/32 1;
122.252.44.123/32 1;
125.252.228.123/32 1;
125.252.236.123/32 1;
125.252.244.123/32 1;
125.252.252.123/32 1;
125.56.148.123/32 1;
125.56.180.123/32 1;
173.0.92.0/24 1;
173.0.93.0/24 1;
173.222.20.123/32 1;
173.223.68.123/32 1;
184.24.244.123/32 1;
184.25.68.123/32 1;
184.29.116.123/32 1;
184.50.180.123/32 1;
184.50.212.123/32 1;
184.84.100.123/32 1;
184.84.36.123/32 1;
184.85.180.123/32 1;

# svcs.paypal.com
173.0.84.108 1;
173.0.84.76 1;
173.0.88.108 1;
173.0.88.76 1;
173.0.92.36 1;
64.4.248.36 1;
64.4.249.36 1;
66.211.168.180 1;

# notify.paypal.com
66.211.170.66 1;
173.0.81.1 1;
173.0.81.33 1;

# reports.paypal.com
173.0.84.161 1;
173.0.84.198 1;
173.0.88.161 1;
173.0.88.198 1;



#####################################################################



# crawler + social media

# google


66.249.64.0/19 1;

# bing - not possible, no shit, sherlock!
# https://www.bing.com/webmaster/help/how-to-verify-bingbot-3905dc26


# baidu

180.76.0.0/16 1;


# facebook
# https://developers.facebook.com/docs/sharing/best-practices#crawl
# whois -h whois.radb.net -- '-i origin AS32934' | grep ^route  


66.220.144.0/21 1;
69.63.176.0/21 1;
74.119.76.0/22 1;
69.171.255.0/24 1;
173.252.64.0/18 1;
69.171.224.0/19 1;
69.171.224.0/20 1;
103.4.96.0/22 1;
69.63.176.0/24 1;
173.252.64.0/19 1;
173.252.70.0/24 1;
31.13.64.0/18 1;
31.13.24.0/21 1;
66.220.152.0/21 1;
66.220.159.0/24 1;
69.171.239.0/24 1;
69.171.240.0/20 1;
31.13.64.0/19 1;
31.13.64.0/24 1;
31.13.65.0/24 1;
31.13.67.0/24 1;
31.13.68.0/24 1;
31.13.69.0/24 1;
31.13.70.0/24 1;
31.13.71.0/24 1;
31.13.72.0/24 1;
31.13.73.0/24 1;
31.13.74.0/24 1;
31.13.75.0/24 1;
31.13.76.0/24 1;
31.13.77.0/24 1;
31.13.96.0/19 1;
31.13.66.0/24 1;
173.252.96.0/19 1;
69.63.178.0/24 1;
31.13.78.0/24 1;
31.13.79.0/24 1;
31.13.80.0/24 1;
31.13.82.0/24 1;
31.13.83.0/24 1;
31.13.84.0/24 1;
31.13.85.0/24 1;
31.13.86.0/24 1;
31.13.87.0/24 1;
31.13.88.0/24 1;
31.13.89.0/24 1;
31.13.90.0/24 1;
31.13.91.0/24 1;
31.13.92.0/24 1;
31.13.93.0/24 1;
31.13.94.0/24 1;
31.13.95.0/24 1;
69.171.253.0/24 1;
69.63.186.0/24 1;
31.13.81.0/24 1;
179.60.192.0/22 1;
179.60.192.0/24 1;
179.60.193.0/24 1;
179.60.194.0/24 1;
179.60.195.0/24 1;
185.60.216.0/22 1;
45.64.40.0/22 1;
185.60.216.0/24 1;
185.60.217.0/24 1;
185.60.218.0/24 1;
185.60.219.0/24 1;
129.134.0.0/16 1;
157.240.0.0/16 1;
204.15.20.0/22 1;
69.63.176.0/20 1;
69.63.184.0/21 1;
66.220.144.0/20 1;




# twitter card crawler
# https://dev.twitter.com/cards/troubleshooting#15_seconds" rel="nofollow
# Also, Twitter’s ASNUM is AS13414.


199.59.148.209 1;
199.59.148.210 1;
199.59.148.211 1;
199.16.156.124 1;
199.16.156.125 1;
199.16.156.126 1;


